^C:\USERS\VIDE\DESKTOP\WORKING2020\INSTANCIATIONCOMPLEMENTS21NOVPM\INSTANCIATIONCOMPLEMENTS21NOVPM\DEBUG\A.OBJ|C:\USERS\VIDE\DESKTOP\WORKING2020\INSTANCIATIONCOMPLEMENTS21NOVPM\INSTANCIATIONCOMPLEMENTS21NOVPM\DEBUG\B.OBJ|C:\USERS\VIDE\DESKTOP\WORKING2020\INSTANCIATIONCOMPLEMENTS21NOVPM\INSTANCIATIONCOMPLEMENTS21NOVPM\DEBUG\FAQ.OBJ|C:\USERS\VIDE\DESKTOP\WORKING2020\INSTANCIATIONCOMPLEMENTS21NOVPM\INSTANCIATIONCOMPLEMENTS21NOVPM\DEBUG\GC.OBJ|C:\USERS\VIDE\DESKTOP\WORKING2020\INSTANCIATIONCOMPLEMENTS21NOVPM\INSTANCIATIONCOMPLEMENTS21NOVPM\DEBUG\INSTANCIATIONCOMPLEMENTS21NOVPM.OBJ|C:\USERS\VIDE\DESKTOP\WORKING2020\INSTANCIATIONCOMPLEMENTS21NOVPM\INSTANCIATIONCOMPLEMENTS21NOVPM\DEBUG\INTERVAL.OBJ|C:\USERS\VIDE\DESKTOP\WORKING2020\INSTANCIATIONCOMPLEMENTS21NOVPM\INSTANCIATIONCOMPLEMENTS21NOVPM\DEBUG\PCH.OBJ|C:\USERS\VIDE\DESKTOP\WORKING2020\INSTANCIATIONCOMPLEMENTS21NOVPM\INSTANCIATIONCOMPLEMENTS21NOVPM\DEBUG\TAJINE.OBJ
C:\USERS\VIDE\DESKTOP\WORKING2020\INSTANCIATIONCOMPLEMENTS21NOVPM\DEBUG\INSTANCIATIONCOMPLEMENTS21NOVPM.EXE
C:\USERS\VIDE\DESKTOP\WORKING2020\INSTANCIATIONCOMPLEMENTS21NOVPM\DEBUG\INSTANCIATIONCOMPLEMENTS21NOVPM.ILK
C:\USERS\VIDE\DESKTOP\WORKING2020\INSTANCIATIONCOMPLEMENTS21NOVPM\DEBUG\INSTANCIATIONCOMPLEMENTS21NOVPM.PDB
