^C:\USERS\VIDE\DESKTOP\WORKING2020\INSTANCIATIONCOMPLEMENTS21NOVPM\INSTANCIATIONCOMPLEMENTS21NOVPM\PCH.CPP
C:\USERS\VIDE\DESKTOP\WORKING2020\INSTANCIATIONCOMPLEMENTS21NOVPM\INSTANCIATIONCOMPLEMENTS21NOVPM\RELEASE\INSTANCIATIONCOMPLEMENTS21NOVPM.PCH
C:\USERS\VIDE\DESKTOP\WORKING2020\INSTANCIATIONCOMPLEMENTS21NOVPM\INSTANCIATIONCOMPLEMENTS21NOVPM\RELEASE\VC141.PDB
C:\USERS\VIDE\DESKTOP\WORKING2020\INSTANCIATIONCOMPLEMENTS21NOVPM\INSTANCIATIONCOMPLEMENTS21NOVPM\RELEASE\PCH.OBJ
^C:\USERS\VIDE\DESKTOP\WORKING2020\INSTANCIATIONCOMPLEMENTS21NOVPM\INSTANCIATIONCOMPLEMENTS21NOVPM\A.CPP|C:\USERS\VIDE\DESKTOP\WORKING2020\INSTANCIATIONCOMPLEMENTS21NOVPM\INSTANCIATIONCOMPLEMENTS21NOVPM\B.CPP|C:\USERS\VIDE\DESKTOP\WORKING2020\INSTANCIATIONCOMPLEMENTS21NOVPM\INSTANCIATIONCOMPLEMENTS21NOVPM\FAQ.CPP|C:\USERS\VIDE\DESKTOP\WORKING2020\INSTANCIATIONCOMPLEMENTS21NOVPM\INSTANCIATIONCOMPLEMENTS21NOVPM\GC.CPP|C:\USERS\VIDE\DESKTOP\WORKING2020\INSTANCIATIONCOMPLEMENTS21NOVPM\INSTANCIATIONCOMPLEMENTS21NOVPM\INSTANCIATIONCOMPLEMENTS21NOVPM.CPP|C:\USERS\VIDE\DESKTOP\WORKING2020\INSTANCIATIONCOMPLEMENTS21NOVPM\INSTANCIATIONCOMPLEMENTS21NOVPM\INTERVAL.CPP|C:\USERS\VIDE\DESKTOP\WORKING2020\INSTANCIATIONCOMPLEMENTS21NOVPM\INSTANCIATIONCOMPLEMENTS21NOVPM\TAJINE.CPP
C:\USERS\VIDE\DESKTOP\WORKING2020\INSTANCIATIONCOMPLEMENTS21NOVPM\INSTANCIATIONCOMPLEMENTS21NOVPM\RELEASE\VC141.PDB
C:\USERS\VIDE\DESKTOP\WORKING2020\INSTANCIATIONCOMPLEMENTS21NOVPM\INSTANCIATIONCOMPLEMENTS21NOVPM\RELEASE\TAJINE.OBJ
C:\USERS\VIDE\DESKTOP\WORKING2020\INSTANCIATIONCOMPLEMENTS21NOVPM\INSTANCIATIONCOMPLEMENTS21NOVPM\RELEASE\INTERVAL.OBJ
C:\USERS\VIDE\DESKTOP\WORKING2020\INSTANCIATIONCOMPLEMENTS21NOVPM\INSTANCIATIONCOMPLEMENTS21NOVPM\RELEASE\INSTANCIATIONCOMPLEMENTS21NOVPM.OBJ
C:\USERS\VIDE\DESKTOP\WORKING2020\INSTANCIATIONCOMPLEMENTS21NOVPM\INSTANCIATIONCOMPLEMENTS21NOVPM\RELEASE\GC.OBJ
C:\USERS\VIDE\DESKTOP\WORKING2020\INSTANCIATIONCOMPLEMENTS21NOVPM\INSTANCIATIONCOMPLEMENTS21NOVPM\RELEASE\FAQ.OBJ
C:\USERS\VIDE\DESKTOP\WORKING2020\INSTANCIATIONCOMPLEMENTS21NOVPM\INSTANCIATIONCOMPLEMENTS21NOVPM\RELEASE\B.OBJ
C:\USERS\VIDE\DESKTOP\WORKING2020\INSTANCIATIONCOMPLEMENTS21NOVPM\INSTANCIATIONCOMPLEMENTS21NOVPM\RELEASE\A.OBJ
^C:\USERS\VIDE\DESKTOP\WORKING2020\INSTANCIATIONCOMPLEMENTS21NOVPM\INSTANCIATIONCOMPLEMENTS21NOVPM\A.CPP
C:\USERS\VIDE\DESKTOP\WORKING2020\INSTANCIATIONCOMPLEMENTS21NOVPM\INSTANCIATIONCOMPLEMENTS21NOVPM\RELEASE\VC141.PDB
^C:\USERS\VIDE\DESKTOP\WORKING2020\INSTANCIATIONCOMPLEMENTS21NOVPM\INSTANCIATIONCOMPLEMENTS21NOVPM\B.CPP
C:\USERS\VIDE\DESKTOP\WORKING2020\INSTANCIATIONCOMPLEMENTS21NOVPM\INSTANCIATIONCOMPLEMENTS21NOVPM\RELEASE\VC141.PDB
^C:\USERS\VIDE\DESKTOP\WORKING2020\INSTANCIATIONCOMPLEMENTS21NOVPM\INSTANCIATIONCOMPLEMENTS21NOVPM\GC.CPP
C:\USERS\VIDE\DESKTOP\WORKING2020\INSTANCIATIONCOMPLEMENTS21NOVPM\INSTANCIATIONCOMPLEMENTS21NOVPM\RELEASE\VC141.PDB
^C:\USERS\VIDE\DESKTOP\WORKING2020\INSTANCIATIONCOMPLEMENTS21NOVPM\INSTANCIATIONCOMPLEMENTS21NOVPM\INSTANCIATIONCOMPLEMENTS21NOVPM.CPP
C:\USERS\VIDE\DESKTOP\WORKING2020\INSTANCIATIONCOMPLEMENTS21NOVPM\INSTANCIATIONCOMPLEMENTS21NOVPM\RELEASE\VC141.PDB
^C:\USERS\VIDE\DESKTOP\WORKING2020\INSTANCIATIONCOMPLEMENTS21NOVPM\INSTANCIATIONCOMPLEMENTS21NOVPM\TAJINE.CPP
C:\USERS\VIDE\DESKTOP\WORKING2020\INSTANCIATIONCOMPLEMENTS21NOVPM\INSTANCIATIONCOMPLEMENTS21NOVPM\RELEASE\VC141.PDB
^C:\USERS\VIDE\DESKTOP\WORKING2020\INSTANCIATIONCOMPLEMENTS21NOVPM\INSTANCIATIONCOMPLEMENTS21NOVPM\FAQ.CPP|C:\USERS\VIDE\DESKTOP\WORKING2020\INSTANCIATIONCOMPLEMENTS21NOVPM\INSTANCIATIONCOMPLEMENTS21NOVPM\INTERVAL.CPP
C:\USERS\VIDE\DESKTOP\WORKING2020\INSTANCIATIONCOMPLEMENTS21NOVPM\INSTANCIATIONCOMPLEMENTS21NOVPM\RELEASE\VC141.PDB
C:\USERS\VIDE\DESKTOP\WORKING2020\INSTANCIATIONCOMPLEMENTS21NOVPM\INSTANCIATIONCOMPLEMENTS21NOVPM\RELEASE\INTERVAL.OBJ
C:\USERS\VIDE\DESKTOP\WORKING2020\INSTANCIATIONCOMPLEMENTS21NOVPM\INSTANCIATIONCOMPLEMENTS21NOVPM\RELEASE\FAQ.OBJ
^C:\USERS\VIDE\DESKTOP\WORKING2020\INSTANCIATIONCOMPLEMENTS21NOVPM\INSTANCIATIONCOMPLEMENTS21NOVPM\FAQ.CPP
C:\USERS\VIDE\DESKTOP\WORKING2020\INSTANCIATIONCOMPLEMENTS21NOVPM\INSTANCIATIONCOMPLEMENTS21NOVPM\RELEASE\VC141.PDB
^C:\USERS\VIDE\DESKTOP\WORKING2020\INSTANCIATIONCOMPLEMENTS21NOVPM\INSTANCIATIONCOMPLEMENTS21NOVPM\INTERVAL.CPP
C:\USERS\VIDE\DESKTOP\WORKING2020\INSTANCIATIONCOMPLEMENTS21NOVPM\INSTANCIATIONCOMPLEMENTS21NOVPM\RELEASE\VC141.PDB
